Machine Learning Approaches for Ammonia Volatilization Prediction after Manure Application
…
df_evaluation_metrics %>%

    rename (response = name) %>%
    pivot_longer (cols = c (Pearsons_r, ME, MAE, MBE)) %>%
    mutate (name = factor (name, levels = c("Pearsons_r", "ME", "MAE", "MBE"))) %>% 
    filter (name %in% c ("MAE", "MBE")) %>%

    arrange (name, dataset) %>%

    mutate (variation = (1 - abs(value) / abs(value [method == "alfam2"])) * 100, .by = c(response, name, dataset))

# A tibble: 32 × 6
   response                   dataset            method    name  value variation
   <chr>                      <chr>              <chr>     <fct> <dbl>     <dbl>
 1 72h cum. emission          Calibration subset alfam2    MAE   6.65       0   
 2 72h cum. emission          Calibration subset random f… MAE   2.18      67.3 
 3 72h cum. emission          Calibration subset xgboost   MAE   0.43      93.5 
 4 72h cum. emission          Calibration subset lasso     MAE   6.75      -1.40
 5 72h relative cum. emission Calibration subset alfam2    MAE   0.118      0   
 6 72h relative cum. emission Calibration subset random f… MAE   0.038     67.8 
 7 72h relative cum. emission Calibration subset xgboost   MAE   0.007     94.1 
 8 72h relative cum. emission Calibration subset lasso     MAE   0.115      2.54
 9 72h cum. emission          Evaluation subset  alfam2    MAE   5.76       0   
10 72h cum. emission          Evaluation subset  random f… MAE   3.42      40.6 
# ℹ 22 more rows
…
